EVDS Data Analysis - Homework 1
…
## tibble[,4] [32 x 4] (S3: tbl_df/tbl/data.frame)
##  $ Date     : chr [1:32] "2018-10" "2018-11" "2018-12" "2019-01" ...
##  $ Car_Loans: chr [1:32] "18.75" "19.75" "18.60" "23.50" ...
##  $ Car_Price: chr [1:32] "44.25" "46.0" "41.80" "39.25" ...
##  $ Car      : num [1:32] 60 61.5 59.2 62 61.2 ...

df1 <- car %>%
  select(Date, Car_Rental_and_Sales)
df2<- Car_Google_Trends %>%
  select(Date, Car_Loans)
df3 <- left_join(df2, df1, by = "Date") 
df3

## # A tibble: 32 x 3
##    Date    Car_Loans Car_Rental_and_Sales
##    <chr>   <chr>                    <dbl>
##  1 2018-10 18.75                  2097102
##  2 2018-11 19.75                  2943438
##  3 2018-12 18.60                  2490940
##  4 2019-01 23.50                  1876455
##  5 2019-02 21.50                  1948016
##  6 2019-03 20.0                   2817951
##  7 2019-04 19.50                  2172818
##  8 2019-05 19.50                  3041931
##  9 2019-06 19.80                  2303626
## 10 2019-07 24.0                   2449107
## # ... with 22 more rows
…
araba kredi key word is chosen for the bank and credit card spendings of car rental, sales, spare parts expenses. The search rate for araba kredi is increasing from 2018 to 2020 and there is a sharp decrease at 2020. Also, Car_Rental_and_Sales graph shows the same sharp decrease. Both data is fluctuating and after 2020 there is an increase in Car_Rental_and_Sales data, however, in the Car_Loans graph the fluctuation also exists but no increase in the trend. We, can say that araba kredi search rate goes parallel with bank and credit card spendings of car expenses until 2020 but some changes occurred after that date.

Graph analysis of araba fiyatlar key word

df_purchase <- car %>%
  select(Date, Car_Purchasing_Index)
df_price<- Car_Google_Trends %>%
  select(Date, Car_Price)
df4 <- left_join(df_price, df_purchase, by = "Date") 
df4

## # A tibble: 32 x 3
##    Date    Car_Price Car_Purchasing_Index
##    <chr>   <chr>                    <dbl>
##  1 2018-10 44.25                     365.
##  2 2018-11 46.0                      317.
##  3 2018-12 41.80                     314.
##  4 2019-01 39.25                     312.
##  5 2019-02 38.25                     311.
##  6 2019-03 37.60                     307.
##  7 2019-04 35.25                     310.
##  8 2019-05 36.75                     322.
##  9 2019-06 47.6                      325.
## 10 2019-07 50.5                      358.
## # ... with 22 more rows
…
araba fiyatlar key word is chosen for the car purchase data. It can be expected that when car purchase data from consumer price index increase, araba fiyatlar key word search rate should decrease. From the graphs above, it is seen that there is an opposite relation as expected. For instance, in the Car_Price graph search rate started to decrease from the middle of 2020 and in the Car_Purchasing_Index graph, car costs increase so there is an opposite relation.

Graph analysis of araba key word

df_production <- car %>%
  select(Date, Manufactured_Automobile_Number)
df_car<- Car_Google_Trends %>%
  select(Date, Car)
df5 <- left_join(df_production, df_car, by = "Date") 
df5

## # A tibble: 36 x 3
##    Date    Manufactured_Automobile_Number   Car
##    <chr>                            <dbl> <dbl>
##  1 2018-04                          90789  NA  
##  2 2018-05                          95677  NA  
##  3 2018-06                          85635  NA  
##  4 2018-07                          96511  NA  
##  5 2018-08                          29289  NA  
##  6 2018-09                          86395  NA  
##  7 2018-10                          89151  60  
##  8 2018-11                          85666  61.5
##  9 2018-12                          82157  59.2
## 10 2019-01                          71397  62  
## # ... with 26 more rows
…
